{
    "KPlugin": {
        "Authors": [
            {
                "Email": "kde@privat.broulik.de",
                "Name": "Kai Uwe Broulik",
                "Name[ar]": "Kai Uwe Broulik",
                "Name[az]": "Kai Uwe Broulik",
                "Name[bg]": "Kai Uwe Broulik",
                "Name[ca@valencia]": "Kai Uwe Broulik",
                "Name[ca]": "Kai Uwe Broulik",
                "Name[cs]": "Kai Uwe Broulik",
                "Name[da]": "Kai Uwe Broulik",
                "Name[de]": "Kai Uwe Broulik",
                "Name[en_GB]": "Kai Uwe Broulik",
                "Name[es]": "Kai Uwe Broulik",
                "Name[eu]": "Kai Uwe Broulik",
                "Name[fi]": "Kai Uwe Broulik",
                "Name[fr]": "Kai Uwe Broulik",
                "Name[hu]": "Kai Uwe Broulik",
                "Name[ia]": "Kai Uwe Broulik",
                "Name[id]": "Kai Uwe Broulik",
                "Name[is]": "Kai Uwe Broulik",
                "Name[it]": "Kai Uwe Broulik",
                "Name[ja]": "Kai Uwe Broulik",
                "Name[ka]": "კაი უვე ბროულიკი",
                "Name[ko]": "Kai Uwe Broulik",
                "Name[lt]": "Kai Uwe Broulik",
                "Name[nl]": "Kai Uwe Broulik",
                "Name[nn]": "Kai Uwe Broulik",
                "Name[pl]": "Kai Uwe Broulik",
                "Name[pt]": "Kai Uwe Broulik",
                "Name[pt_BR]": "Kai Uwe Broulik",
                "Name[ro]": "Kai Uwe Broulik",
                "Name[ru]": "Kai Uwe Broulik",
                "Name[sk]": "Kai Uwe Broulik",
                "Name[sl]": "Kai Uwe Broulik",
                "Name[sv]": "Kai Uwe Broulik",
                "Name[ta]": "காய் ஊவே புரோலிக்",
                "Name[tr]": "Kai Uwe Broulik",
                "Name[uk]": "Kai Uwe Broulik",
                "Name[vi]": "Kai Uwe Broulik",
                "Name[x-test]": "xxKai Uwe Broulikxx",
                "Name[zh_CN]": "Kai Uwe Broulik"
            }
        ],
        "Category": "System Information",
        "Description": "System monitor Widget that shows usage of individual CPU cores",
        "Description[ar]": "أداة مراقبة النظام التي تعرض استخدام كل نواة من المعالج",
        "Description[az]": "Sistem monitoru vidjeti hər CPU nüvəsinin istifadəsini göstərir",
        "Description[bg]": "Уиджет за системен монитор, който показва използването на отделни ядра на процесора",
        "Description[ca@valencia]": "Giny del monitor del sistema que mostra l'ús individual dels nuclis de la CPU",
        "Description[ca]": "Giny del monitor del sistema que mostra l'ús individual dels nuclis de la CPU",
        "Description[da]": "Systemovervågning-widget som viser brug af hver CPU-kerne",
        "Description[de]": "Systemmonitor-Miniprogramm, das die Verwendung einzelner CPU-Kerne anzeigt",
        "Description[en_GB]": "System monitor Widget that shows usage of individual CPU cores",
        "Description[es]": "Elemento gráfico del monitor del sistema que muestra el uso de los núcleos individuales de la CPU",
        "Description[eu]": "PUZeko nukleoen banakako erabilera erakusten duen sistema gainbegiratzeko trepeta",
        "Description[fi]": "Yksittäisten järjestelmäydinten käytön näyttävä järjestelmänvalvontasovelma",
        "Description[fr]": "Composant graphique de surveillance du système, affichant l'utilisation de chaque cœur du processeur.",
        "Description[hu]": "Rendszermonitor elem, amely az egyes logikai processzorok használatát mutatja",
        "Description[ia]": "Widget de supervision de systema que monstra le uso del nucleos individual",
        "Description[id]": "Widget pemantau sistem yang menampilkan penggunaan core CPU individual",
        "Description[it]": "Oggetto di monitoraggio del sistema che mostra l'utilizzo dei singoli core del processore",
        "Description[ja]": "CPU の各コアの使用率を表示するシステムモニタウィジェット",
        "Description[ka]": "სისტემური მონიტორის ვიჯეტი, რომელიც CPU-ის ბირთვებს სათითაოდ აჩვენებს",
        "Description[ko]": "개별 CPU 코어 사용량을 표시하는 시스템 모니터 위젯",
        "Description[lt]": "Sistemos prižiūryklės valdiklis, kuris rodo atskirų procesoriaus branduolių naudojimą",
        "Description[nl]": "Systeemmonitorwidget die gebruik toont van individuele CPU-kernen",
        "Description[nn]": "System­overvaking som viser bruk av einskilde prosessor­kjernar",
        "Description[pa]": "ਵੱਖ-ਵੱਖ CPU ਕੋਰਾਂ ਦੀ ਵਰਤੋਂ ਵਿਖਾਉਣ ਵਾਲਾ ਸਿਸਟਮ ਮਾਨੀਟਰ ਵਿਜੈੱਟ",
        "Description[pl]": "Element interfejsu, który pokazuje wykorzystanie poszczególnych rdzeni procesora",
        "Description[pt]": "Elemento de monitorização do sistema que mostra a carga individual de cada núcleo do CPU",
        "Description[pt_BR]": "Widget monitor do sistema que mostra o uso individual dos núcleos da CPU",
        "Description[ro]": "Control grafic de monitorizare a sistemului ce arată utilizarea nucleelor individuale ale procesorului",
        "Description[ru]": "Мониторинг загрузки процессора, предоставляющий сведения об индивидуальном использовании ядер",
        "Description[sk]": "Miniaplikácia monitorovania systému, ktorá zobrazuje využitie jednotlivých jadier",
        "Description[sl]": "Gradnik sistemskega monitorja, ki prikazuje rabo posameznega jedra CPE",
        "Description[sv]": "Grafisk systemövervakningskomponent som visar användning av individuella processorkärnor",
        "Description[ta]": "தனிப்பட்ட CPU core-களின் பயன்பாட்டைக் காட்டும் பிளாஸ்மாய்ட்",
        "Description[tr]": "Bireysel CPU çekirdeklerini gösteren sistem izleyicisi araç takımı",
        "Description[uk]": "Віджет нагляду за системою, який показує використання окремих ядер процесора",
        "Description[vi]": "Phụ kiện giám sát hệ thống cho biết lượng dùng các lõi CPU riêng lẻ",
        "Description[x-test]": "xxSystem monitor Widget that shows usage of individual CPU coresxx",
        "Description[zh_CN]": "显示单个 CPU 核心使用情况的系统监视挂件",
        "EnabledByDefault": true,
        "FormFactors": [
            "desktop"
        ],
        "Icon": "ksysguardd",
        "Id": "org.kde.plasma.systemmonitor.cpucore",
        "License": "GPL-2.0+",
        "Name": "Individual Core Usage",
        "Name[ar]": "استخدام النوى الفردية",
        "Name[az]": "MP nüvəsinin yükü",
        "Name[bg]": "Използване на ядрата на процесора",
        "Name[ca@valencia]": "Ús individual del nucli",
        "Name[ca]": "Ús individual del nucli",
        "Name[da]": "Brug af hver kerne",
        "Name[de]": "Verwendung einzelner Kerne",
        "Name[en_GB]": "Individual Core Usage",
        "Name[es]": "Uso de núcleos individuales",
        "Name[et]": "Iga tuuma kasutus",
        "Name[eu]": "Nukleoen banakako erabilera",
        "Name[fi]": "Yksittäisten ydinten käyttö",
        "Name[fr]": "Utilisation de chaque cœur ",
        "Name[hi]": "व्यक्तिगत कोर उपयोग ",
        "Name[hu]": "Logikai processzorok használata",
        "Name[ia]": "Uso de nucleo (core) individual",
        "Name[id]": "Penggunaan Core Individual",
        "Name[is]": "Notkun einstakra kjarna",
        "Name[it]": "Utilizzo del singolo core",
        "Name[ja]": "各コアの使用率",
        "Name[ka]": "თითოეული ბირთვის დატვირთვა",
        "Name[ko]": "개별 코어 사용량",
        "Name[lt]": "Atskirų branduolių naudojimas",
        "Name[ml]": "വ്യക്തിഗത കോർ ഉപയോഗം",
        "Name[nl]": "Individueel gebruik van kernen",
        "Name[nn]": "Einskildkjerne-bruk",
        "Name[pa]": "ਵੱਖੋ-ਵੱਖ ਕੋਰ ਵਰਤੋਂ",
        "Name[pl]": "Wykorzystanie na rdzeń",
        "Name[pt]": "Carga dos Núcleos Individuais",
        "Name[pt_BR]": "Uso individual do núcleo",
        "Name[ro]": "Utilizare individuală nuclee",
        "Name[ru]": "Загрузка ядер ЦП",
        "Name[sk]": "Využitie jednotlivých jadier",
        "Name[sl]": "Poraba posameznega jedra",
        "Name[sv]": "Användning av individuella kärnor",
        "Name[ta]": "தனிப்பட்ட கணிப்பி பயன்பாட்டு",
        "Name[tr]": "Bireysel Çekirdek Kullanımı",
        "Name[uk]": "Використання окремих ядер",
        "Name[vi]": "Lượng dùng mỗi lõi riêng lẻ",
        "Name[x-test]": "xxIndividual Core Usagexx",
        "Name[zh_CN]": "单个核心使用率",
        "Name[zh_TW]": "獨立核心用量",
        "ServiceTypes": [
            "Plasma/Applet"
        ],
        "Version": "1.0",
        "Website": "https://www.kde.org/plasma-desktop"
    },
    "X-Plasma-API": "declarativeappletscript",
    "X-Plasma-MainScript": "ui/main.qml",
    "X-Plasma-Provides": [
        "org.kde.plasma.systemmonitor"
    ],
    "X-Plasma-RootPath": "org.kde.plasma.systemmonitor"
}
